…
Let’s check how many polls we have for a state

``` r
df_polls_two_party %>%  
  group_by(state) %>% 
  summarise(n())
```

    ## # A tibble: 28 × 2
    ##    state `n()`
    ##    <chr> <int>
    ##  1 AR        4
    ##  2 AZ       30
    ##  3 CA        7
    ##  4 CO       13
    ##  5 CT        9
    ##  6 FL       74
    ##  7 GA       49
    ##  8 IA        4
    ##  9 IL       15
    ## 10 KS        6
    ## # … with 18 more rows
…
Get summary on election day

``` r
election_day_prediction <- df_prediction %>%
  filter(day == target_day) %>% 
  rename(dem = prediction) %>% 
  mutate(rep = 1 - dem) %>% 
  group_by(state) 

election_day_prediction %>% 
  mean_qi(dem, rep, .width = .95) 
```

    ## # A tibble: 28 × 10
    ##    state   dem dem.lower dem.upper   rep rep.lower rep.upper .width .point
    ##    <chr> <dbl>     <dbl>     <dbl> <dbl>     <dbl>     <dbl>  <dbl> <chr> 
    ##  1 AR    0.395     0.326     0.469 0.605     0.531     0.674   0.95 mean  
    ##  2 AZ    0.510     0.442     0.579 0.490     0.421     0.558   0.95 mean  
    ##  3 CA    0.660     0.585     0.730 0.340     0.270     0.415   0.95 mean  
    ##  4 CO    0.590     0.521     0.655 0.410     0.345     0.479   0.95 mean  
    ##  5 CT    0.582     0.511     0.651 0.418     0.349     0.489   0.95 mean  
    ##  6 FL    0.473     0.404     0.542 0.527     0.458     0.596   0.95 mean  
    ##  7 GA    0.482     0.413     0.551 0.518     0.449     0.587   0.95 mean  
    ##  8 IA    0.431     0.335     0.530 0.569     0.470     0.665   0.95 mean  
    ##  9 IL    0.573     0.503     0.640 0.427     0.360     0.497   0.95 mean  
    ## 10 KS    0.528     0.453     0.603 0.472     0.397     0.547   0.95 mean  
    ## # … with 18 more rows, and 1 more variable: .interval <chr>
…
